{
   "from":1,
   "to":20,
   "count":10000,
   "_links":{
      "next":{
         "href":"https://api.edamam.com/api/recipes/v2?q=&app_key=7e02a24790f9c127571b1a3bad7028d5&field=uri&field=label&field=image&field=totalTime&field=calories&dishType=Salad&_cont=CHcVQBtNNQphDmgVQntAEX4BY0t3AQECUXlSAjdFMVUhBFZUQGJEUWBHa1wlVwUGF2ESVmYbNVRzDAcVLnlSVSBMPkd5BgNK&imageSize=THUMBNAIL&type=public&app_id=cb462440",
         "title":"Next page"
      }
   },
   "hits":[
      {
         "recipe":{
            "uri":"myURI",
            "label":"Stub",
            "image":"stubImage",
            "calories":100.0,
            "totalTime":100.0
         },
         "_links":{
            "self":{
               "href":"https://api.edamam.com/api/recipes/v2/5b680f6222d648548996ffd08b0486a0?type=public&app_id=cb462440&app_key=7e02a24790f9c127571b1a3bad7028d5",
               "title":"Self"
            }
         }
      },
      {
         "recipe":{
             "uri":"myURI",
             "label":"Stub",
             "image":"stubImage",
             "calories":100.0,
             "totalTime":100.0
         },
         "_links":{
            "self":{
               "href":"https://api.edamam.com/api/recipes/v2/1c0fd9a2dc4dbf64a7bbf4fe4c0bd310?type=public&app_id=cb462440&app_key=7e02a24790f9c127571b1a3bad7028d5",
               "title":"Self"
            }
         }
      },
      {
         "recipe":{
             "uri":"myURI",
             "label":"Stub",
             "image":"stubImage",
             "calories":100.0,
             "totalTime":100.0
         },
         "_links":{
            "self":{
               "href":"https://api.edamam.com/api/recipes/v2/69c91c52327fb78b44a541466b318011?type=public&app_id=cb462440&app_key=7e02a24790f9c127571b1a3bad7028d5",
               "title":"Self"
            }
         }
      },
      {
         "recipe":{
             "uri":"myURI",
             "label":"Stub",
             "image":"stubImage",
             "calories":100.0,
             "totalTime":100.0
         },
         "_links":{
            "self":{
               "href":"https://api.edamam.com/api/recipes/v2/078d8e403cbd9110317d1440473b871d?type=public&app_id=cb462440&app_key=7e02a24790f9c127571b1a3bad7028d5",
               "title":"Self"
            }
         }
      }
   ]
}
